{
    "id": "masks-newgeneration-sheets",
    "name": "masks-newgeneration-sheets",
    "title": "Masks: A New Generation Sheets",
    "description": "A default set of enhanced and updated sheets for use with Masks: A New Generation!",
    "author": "Geekswordsman (@Geekswordsman#3085)",
    "authors": [
        {
            "name": "Geekswordsman",
            "discord": "@Geekswordsman#3085"
        },
        {
          "name": "ephson",
          "url": "https://github.com/philote",
          "discord": "ephson",
          "mastodon": "@ephson@dice.camp",
          "reddit": "u/ephson"
        }
    ],
    "version": "1.3.2",
    "compatibility": {
        "minimum": "10",
        "verified": "11.315",
        "maximum": 11
    },
    "styles": [ 
        "styles/masks-sheets.css"
    ],
    "esmodules": [
        "module/masks-sheets.mjs"
    ],
    "languages": [
        {
            "lang": "en",
            "name": "English",
            "path": "languages/en.json"
        },
        {
            "lang": "pt-BR",
            "name": "Português (Brasil)",
            "path": "languages/pt-br.json"
        },
        {
            "lang": "fr",
            "name": "Français",
            "path": "languages/fr.json"
        }
     ],
    "dependencies": [
        {
          "name": "masks-newgeneration-unofficial",
          "manifest": "https://raw.githubusercontent.com/CyricPL/masks-newgeneration-unofficial/main/module.json"
        }
    ],
    "relationships": {
        "systems": [
            {
                "id": "pbta",
                "type": "system",
                "manifest": "https://asacolips-artifacts.s3.amazonaws.com/pbta/0.6.0/system.json",
                "compatibility": {
                  "minimum": "0.6.0",
                  "verified": "0.7.3"
                }
            }
        ],
        "requires": [
            {
                "id": "masks-newgeneration-unofficial",
                "type": "module",
                "manifest": "https://raw.githubusercontent.com/CyricPL/masks-newgeneration-unofficial/main/module.json",
                "compatibility": {
                  "minimum": "1.0.0",
                  "verified": "1.3.0"
                }
            }
        ]
    },
    "system": "pbta",
    "url": "https://gitlab.com/geekswordsman/masks-newgeneration-sheets",
    "manifest": "https://gitlab.com/api/v4/projects/geekswordsman%2Fmasks-newgeneration-sheets/packages/generic/release/latest/module.json",
    "download": "https://gitlab.com/geekswordsman/masks-newgeneration-sheets/-/archive/v1.3.2/masks-newgeneration-sheets-v1.3.2.zip",
    "license": "https://gitlab.com/geekswordsman/masks-newgeneration-sheets/-/raw/main/LICENSE",
    "readme": "https://gitlab.com/geekswordsman/masks-newgeneration-sheets/-/raw/main/README.MD",
    "bugs": "https://gitlab.com/geekswordsman/masks-newgeneration-sheets/-/issues",
    "changelog": "https://gitlab.com/geekswordsman/masks-newgeneration-sheets/-/raw/main/CHANGELOG.md"
}